{
	"info": {
		"_postman_id": "0235c3e7-c63e-4a47-82aa-76f149c11a56",
		"name": "Capstone",
		"schema": "https://schema.getpostman.com/json/collection/v2.1.0/collection.json"
	},
	"item": [
		{
			"name": "Back End",
			"item": [
				{
					"name": "Users",
					"item": [
						{
							"name": "Register",
							"request": {
								"method": "POST",
								"header": [],
								"body": {
									"mode": "raw",
									"raw": "{\r\n    \"email\": \"user2@mail.com\",\r\n    \"password\": \"User123\"\r\n}",
									"options": {
										"raw": {
											"language": "json"
										}
									}
								},
								"url": {
									"raw": "http://localhost:4000/project/users/register",
									"protocol": "http",
									"host": [
										"localhost"
									],
									"port": "4000",
									"path": [
										"project",
										"users",
										"register"
									]
								}
							},
							"response": []
						},
						{
							"name": "Login",
							"protocolProfileBehavior": {
								"disableBodyPruning": true
							},
							"request": {
								"method": "GET",
								"header": [],
								"body": {
									"mode": "raw",
									"raw": "{\r\n    \"email\": \"admin@mail.com\",\r\n    \"password\": \"Admin123\"\r\n}",
									"options": {
										"raw": {
											"language": "json"
										}
									}
								},
								"url": {
									"raw": "http://localhost:4000/project/users/login",
									"protocol": "http",
									"host": [
										"localhost"
									],
									"port": "4000",
									"path": [
										"project",
										"users",
										"login"
									]
								}
							},
							"response": []
						},
						{
							"name": "Users info",
							"protocolProfileBehavior": {
								"disableBodyPruning": true
							},
							"request": {
								"auth": {
									"type": "bearer",
									"bearer": [
										{
											"key": "token",
											"value": "eyJhbGciOiJIUzI1NiIsInR5cCI6IkpXVCJ9.eyJpZCI6IjYxYWM0NzZmYjNhYzViM2IyYThlZjk5ZSIsImVtYWlsIjoiYWRtaW5AbWFpbC5jb20iLCJpc0FkbWluIjpmYWxzZSwiaWF0IjoxNjM4Njk1NzM4fQ.TrmFQTswNbJpShhslYFSsYMl57J2QLICLEh2v2I3znU",
											"type": "string"
										}
									]
								},
								"method": "GET",
								"header": [],
								"body": {
									"mode": "raw",
									"raw": "{\r\n    \"email\": \"admin@mail.com\",\r\n    \"password\": \"Admin123\"\r\n}",
									"options": {
										"raw": {
											"language": "json"
										}
									}
								},
								"url": {
									"raw": "http://localhost:4000/project/users/details",
									"protocol": "http",
									"host": [
										"localhost"
									],
									"port": "4000",
									"path": [
										"project",
										"users",
										"details"
									]
								}
							},
							"response": []
						},
						{
							"name": "Get all users",
							"protocolProfileBehavior": {
								"disableBodyPruning": true
							},
							"request": {
								"method": "GET",
								"header": [],
								"body": {
									"mode": "raw",
									"raw": "{\r\n    \"email\": \"admin@mail.com\",\r\n    \"password\": \"Admin123\"\r\n}",
									"options": {
										"raw": {
											"language": "json"
										}
									}
								},
								"url": {
									"raw": "http://localhost:4000/project/users/",
									"protocol": "http",
									"host": [
										"localhost"
									],
									"port": "4000",
									"path": [
										"project",
										"users",
										""
									]
								}
							},
							"response": []
						},
						{
							"name": "Set As Admin",
							"request": {
								"auth": {
									"type": "bearer",
									"bearer": [
										{
											"key": "token",
											"value": "eyJhbGciOiJIUzI1NiIsInR5cCI6IkpXVCJ9.eyJpZCI6IjYxYWM0NzhhYjNhYzViM2IyYThlZjlhNSIsImVtYWlsIjoidXNlcjFAbWFpbC5jb20iLCJpc0FkbWluIjp0cnVlLCJpYXQiOjE2Mzg3MDk5ODV9.MtLWiKba03DxwukN8ONYpWxHteMjA6VcyXc4ZRu2SsQ",
											"type": "string"
										}
									]
								},
								"method": "PUT",
								"header": [],
								"body": {
									"mode": "raw",
									"raw": "",
									"options": {
										"raw": {
											"language": "json"
										}
									}
								},
								"url": {
									"raw": "http://localhost:4000/project/users/61ac478ab3ac5b3b2a8ef9a5/setAsAdmin",
									"protocol": "http",
									"host": [
										"localhost"
									],
									"port": "4000",
									"path": [
										"project",
										"users",
										"61ac478ab3ac5b3b2a8ef9a5",
										"setAsAdmin"
									]
								}
							},
							"response": []
						},
						{
							"name": "Remove as Admin",
							"request": {
								"method": "GET",
								"header": [],
								"url": null
							},
							"response": []
						},
						{
							"name": "Get user by ID",
							"request": {
								"method": "GET",
								"header": [],
								"url": {
									"raw": "http://localhost:4000/project/users/61ac476fb3ac5b3b2a8ef99e",
									"protocol": "http",
									"host": [
										"localhost"
									],
									"port": "4000",
									"path": [
										"project",
										"users",
										"61ac476fb3ac5b3b2a8ef99e"
									]
								}
							},
							"response": []
						},
						{
							"name": "User Checkout",
							"request": {
								"auth": {
									"type": "bearer",
									"bearer": [
										{
											"key": "token",
											"value": "eyJhbGciOiJIUzI1NiIsInR5cCI6IkpXVCJ9.eyJpZCI6IjYxYWM0NzhlYjNhYzViM2IyYThlZjlhOCIsImVtYWlsIjoidXNlcjJAbWFpbC5jb20iLCJpc0FkbWluIjpmYWxzZSwiaWF0IjoxNjM4NzQxOTU3fQ.IlV9174r-SECDVg4MK86BX4sI2aUVxZ-BaBHePZeCqw",
											"type": "string"
										}
									]
								},
								"method": "POST",
								"header": [],
								"body": {
									"mode": "raw",
									"raw": "\r\n\r\n[\r\n    {\r\n        \"_id\": \"61acc3a542c6aafe53163949\",\r\n        \"productName\": \"tsinelas\",\r\n        \"price\": 1000\r\n    },\r\n    {\r\n        \"_id\": \"61acc3f742c6aafe5316394f\",\r\n        \"productName\": \"tabo ng ina mo\",\r\n        \"price\": 1000\r\n    },\r\n    {\r\n        \"_id\": \"61acda09841f2521f9b1aa7c\",\r\n        \"productName\": \"kumot\",\r\n        \"price\": 1000\r\n        \r\n    }\r\n    \r\n]",
									"options": {
										"raw": {
											"language": "json"
										}
									}
								},
								"url": {
									"raw": "http://localhost:4000/project/users/checkout",
									"protocol": "http",
									"host": [
										"localhost"
									],
									"port": "4000",
									"path": [
										"project",
										"users",
										"checkout"
									]
								}
							},
							"response": []
						},
						{
							"name": "GET all ORDERS",
							"request": {
								"auth": {
									"type": "bearer",
									"bearer": [
										{
											"key": "token",
											"value": "eyJhbGciOiJIUzI1NiIsInR5cCI6IkpXVCJ9.eyJpZCI6IjYxYWM0NzhlYjNhYzViM2IyYThlZjlhOCIsImVtYWlsIjoidXNlcjJAbWFpbC5jb20iLCJpc0FkbWluIjpmYWxzZSwiaWF0IjoxNjM4OTk3Mzc4fQ.h02MqRaOaAzCRz0QabzRhAUgmkE3e0b-Q1_FfzcVChs",
											"type": "string"
										}
									]
								},
								"method": "GET",
								"header": [],
								"url": {
									"raw": "http://localhost:4000/project/users/orders",
									"protocol": "http",
									"host": [
										"localhost"
									],
									"port": "4000",
									"path": [
										"project",
										"users",
										"orders"
									]
								}
							},
							"response": []
						},
						{
							"name": "get User Orders",
							"request": {
								"method": "GET",
								"header": [],
								"url": null
							},
							"response": []
						}
					]
				},
				{
					"name": "Product",
					"item": [
						{
							"name": "Get all products",
							"protocolProfileBehavior": {
								"disableBodyPruning": true
							},
							"request": {
								"auth": {
									"type": "noauth"
								},
								"method": "GET",
								"header": [],
								"body": {
									"mode": "raw",
									"raw": "{\r\n    \"productName\": \"walis\"\r\n}",
									"options": {
										"raw": {
											"language": "json"
										}
									}
								},
								"url": {
									"raw": "http://localhost:4000/project/products/",
									"protocol": "http",
									"host": [
										"localhost"
									],
									"port": "4000",
									"path": [
										"project",
										"products",
										""
									]
								}
							},
							"response": []
						},
						{
							"name": "Archive product",
							"request": {
								"auth": {
									"type": "bearer",
									"bearer": [
										{
											"key": "token",
											"value": "eyJhbGciOiJIUzI1NiIsInR5cCI6IkpXVCJ9.eyJpZCI6IjYxYWM0NzZmYjNhYzViM2IyYThlZjk5ZSIsImVtYWlsIjoiYWRtaW5AbWFpbC5jb20iLCJpc0FkbWluIjpmYWxzZSwiaWF0IjoxNjM4Njk1NzM4fQ.TrmFQTswNbJpShhslYFSsYMl57J2QLICLEh2v2I3znU",
											"type": "string"
										}
									]
								},
								"method": "PUT",
								"header": [],
								"body": {
									"mode": "raw",
									"raw": "{\r\n    \"productName\": \"walis\"\r\n}",
									"options": {
										"raw": {
											"language": "json"
										}
									}
								},
								"url": {
									"raw": "http://localhost:4000/project/products/archive",
									"protocol": "http",
									"host": [
										"localhost"
									],
									"port": "4000",
									"path": [
										"project",
										"products",
										"archive"
									]
								}
							},
							"response": []
						},
						{
							"name": "get product by ID",
							"request": {
								"method": "GET",
								"header": [],
								"url": {
									"raw": "http://localhost:4000/project/products/61ac4b84442008a80d747c3b",
									"protocol": "http",
									"host": [
										"localhost"
									],
									"port": "4000",
									"path": [
										"project",
										"products",
										"61ac4b84442008a80d747c3b"
									]
								}
							},
							"response": []
						},
						{
							"name": "Archive by ID",
							"request": {
								"auth": {
									"type": "bearer",
									"bearer": [
										{
											"key": "token",
											"value": "eyJhbGciOiJIUzI1NiIsInR5cCI6IkpXVCJ9.eyJpZCI6IjYxYWM0NzZmYjNhYzViM2IyYThlZjk5ZSIsImVtYWlsIjoiYWRtaW5AbWFpbC5jb20iLCJpc0FkbWluIjpmYWxzZSwiaWF0IjoxNjM4Njk1NzM4fQ.TrmFQTswNbJpShhslYFSsYMl57J2QLICLEh2v2I3znU",
											"type": "string"
										}
									]
								},
								"method": "PUT",
								"header": [],
								"url": {
									"raw": "http://localhost:4000/project/products/61ac4be6442008a80d747c46/archive",
									"protocol": "http",
									"host": [
										"localhost"
									],
									"port": "4000",
									"path": [
										"project",
										"products",
										"61ac4be6442008a80d747c46",
										"archive"
									]
								}
							},
							"response": []
						},
						{
							"name": "create product",
							"request": {
								"auth": {
									"type": "bearer",
									"bearer": [
										{
											"key": "token",
											"value": "eyJhbGciOiJIUzI1NiIsInR5cCI6IkpXVCJ9.eyJpZCI6IjYxYWM0NzZmYjNhYzViM2IyYThlZjk5ZSIsImVtYWlsIjoiYWRtaW5AbWFpbC5jb20iLCJpc0FkbWluIjp0cnVlLCJpYXQiOjE2Mzg3MTc5MTB9.vRAHoKdp_MphgCSpiwyXuFMWsp2N3Zf7k6ht2Kcy4wk",
											"type": "string"
										}
									]
								},
								"method": "POST",
								"header": [],
								"body": {
									"mode": "raw",
									"raw": "{\r\n    \"productName\": \"kumot\",\r\n    \"description\": \"necessity pag malamig\",\r\n    \"price\": \"1000\"\r\n}",
									"options": {
										"raw": {
											"language": "json"
										}
									}
								},
								"url": {
									"raw": "http://localhost:4000/project/products/create-product",
									"protocol": "http",
									"host": [
										"localhost"
									],
									"port": "4000",
									"path": [
										"project",
										"products",
										"create-product"
									]
								}
							},
							"response": []
						},
						{
							"name": "Get all active products",
							"request": {
								"method": "GET",
								"header": [],
								"url": null
							},
							"response": []
						},
						{
							"name": "Edit product by ID",
							"request": {
								"auth": {
									"type": "bearer",
									"bearer": [
										{
											"key": "token",
											"value": "eyJhbGciOiJIUzI1NiIsInR5cCI6IkpXVCJ9.eyJpZCI6IjYxYWM0NzZmYjNhYzViM2IyYThlZjk5ZSIsImVtYWlsIjoiYWRtaW5AbWFpbC5jb20iLCJpc0FkbWluIjp0cnVlLCJpYXQiOjE2Mzg3MTk5Mjl9.ntL1QxPdKZpEhy-f1jVXLRGSUinWFdh8pPudmnPI4cM",
											"type": "string"
										}
									]
								},
								"method": "PUT",
								"header": [],
								"body": {
									"mode": "raw",
									"raw": "{\r\n    \"productName\": \"tabo ng ina mo\"\r\n}",
									"options": {
										"raw": {
											"language": "json"
										}
									}
								},
								"url": {
									"raw": "http://localhost:4000/project/products/61acc3f742c6aafe5316394f/edit",
									"protocol": "http",
									"host": [
										"localhost"
									],
									"port": "4000",
									"path": [
										"project",
										"products",
										"61acc3f742c6aafe5316394f",
										"edit"
									]
								}
							},
							"response": []
						},
						{
							"name": "Archive product by ID",
							"request": {
								"method": "GET",
								"header": [],
								"url": null
							},
							"response": []
						}
					]
				}
			]
		}
	]
}